(footprint "Slot" (version 20211014) (generator pcbnew)
  (layer "F.Cu")
  (tedit 0)
  (attr board_only exclude_from_pos_files exclude_from_bom)
  (fp_text reference "REF**" (at 0 -0.5 unlocked) (layer "F.SilkS") hide
    (effects (font (size 1 1) (thickness 0.15)))
    (tstamp 9d89baad-9ae2-4483-87aa-e2040185ba56)
  )
  (fp_text value "Slot" (at 0 1 unlocked) (layer "F.Fab") hide
    (effects (font (size 1 1) (thickness 0.15)))
    (tstamp d98a07f5-7c5c-492a-bbf5-15b022f48f1e)
  )
  (fp_text user "${REFERENCE}" (at 0 2.5 unlocked) (layer "F.Fab") hide
    (effects (font (size 1 1) (thickness 0.15)))
    (tstamp 2c595748-a1ca-41ae-8901-ec979a4fb41a)
  )
  (fp_arc (start -4.046729 -32.896983) (mid 1.583215 -33.537814) (end 7.187 -32.698455) (layer "Edge.Cuts") (width 0.12) (tstamp 5ac0d07c-0d92-43a0-b261-a370c5680abf))
  (fp_arc (start -2.353273 -26.104865) (mid -6.596035 -28.654173) (end -4.046727 -32.896935) (layer "Edge.Cuts") (width 0.12) (tstamp 9916cb2d-12df-4bbf-9252-ee43f19d72b9))
  (fp_arc (start -2.353276 -26.104913) (mid 1.049372 -26.540428) (end 4.460237 -26.174791) (layer "Edge.Cuts") (width 0.12) (tstamp db157e46-85ed-41b8-8a9c-e8c21244041d))
  (fp_arc (start 7.187023 -32.698419) (mid 11.921245 -26.887894) (end 4.460249 -26.174739) (layer "Edge.Cuts") (width 0.12) (tstamp e559a403-6ae8-4966-9737-07e534d87cfa))
  (group "" (id 18ffea82-a628-4faf-bf80-c1386b6a3f5f)
    (members
      5ac0d07c-0d92-43a0-b261-a370c5680abf
      9916cb2d-12df-4bbf-9252-ee43f19d72b9
      db157e46-85ed-41b8-8a9c-e8c21244041d
      e559a403-6ae8-4966-9737-07e534d87cfa
    )
  )
)
